<svg width="24" height="25" viewBox="0 0 24 25" fill="none" xmlns="http://www.w3.org/2000/svg">
<g id="linkedin">
<path id="Vector" d="M2.40591 9.21175H6.62517V21.9089H2.40591V9.21175ZM4.54378 3.09119C3.0997 3.09119 2.15625 4.03923 2.15625 5.28358C2.15625 6.50233 3.07209 7.47794 4.48856 7.47794H4.51547C5.98716 7.47794 6.90366 6.50228 6.90366 5.28358C6.87605 4.03923 5.9872 3.09119 4.54378 3.09119ZM16.9846 8.91348C14.745 8.91348 13.7416 10.1454 13.1819 11.0093V9.21175H8.96137C9.01725 10.4029 8.96137 21.9089 8.96137 21.9089H13.1819V14.8179C13.1819 14.4381 13.2095 14.0597 13.3206 13.7877C13.6261 13.0295 14.3205 12.2444 15.4853 12.2444C17.0136 12.2444 17.6239 13.4093 17.6239 15.1154V21.9088H21.8438V14.6281C21.8438 10.7281 19.7624 8.91348 16.9846 8.91348Z" fill="white"/>
</g>
</svg>
